…
    ## Miscellany:
    ## This is a replication of the Fake Study. The original study is conducted by Georgiy Syunyaev from Columbia University and Someone Else from Some Other University. The replication is conducted by Georgiy Syunyaev.
    ## 
    ## Abstract:
    ## The aim of this study is to test the create_replication() functionality. This is the first attempt at creatreplication class of objects in [R] for systematic storage and access to study replication materials.
    ## 
    ## Technical:
    ## There are 2 datasets provided: data_admin (50 obs. of 11 variables), data_individual (1000 obs. of 12 variables). There are 7 custom functions provided: analyses, absorb, fround, mgsub, pfround, set_seed, wtd_mean. There are 2 table replications provided: table_1, table_2. 
    ## 
    ## [[1]]
    ## [[1]]$data_admin
    ## # A tibble: 50 x 11
    ##    village_id   age school_grade   income        iq   height treat
    ## *       <int> <dbl>        <dbl>    <dbl>     <dbl>    <dbl> <dbl>
    ## 1           1 39.95       84.600 44699.83 101.58325 187.5443     0
    ## 2           2 38.65       85.365 29935.60  97.68520 186.0175     0
    ## 3           3 35.55       84.065 34020.71  95.80900 178.7253     0
    ## 4           4 44.20       82.430 36115.11 106.63790 169.8621     0
    ## 5           5 43.70       83.355 33057.74 105.18525 166.9320     0
    ## 6           6 43.90       85.885 57083.52  92.49965 172.3317     0
    ## 7           7 38.50       77.200 44961.11 108.90850 188.9587     0
    ## 8           8 42.15       76.865 35599.71  99.64625 166.1701     1
    ## 9           9 40.85       86.345 47641.29  96.48255 176.1206     1
    ## 10         10 42.05       84.830 42481.76 101.54255 177.4276     0
    ## # ... with 40 more rows, and 4 more variables: turnout <dbl>, urban <int>,
    ## #   rural <int>, population <int>
    ## 
    ## [[1]]$data_individual
    ## # A tibble: 1,000 x 12
    ##     vote   age ethnicity  male female school_grade   income      iq
    ##    <int> <int>    <fctr> <int>  <int>        <dbl>    <dbl>   <dbl>
    ## 1      0    63     black     0      1         66.8  44418.0  93.631
    ## 2      1    57     white     1      0         91.3  49502.5 115.324
    ## 3      0    22     black     1      0        100.0  27007.4  95.583
    ## 4      0    51  hispanic     1      0         75.5 105206.0  78.870
    ## 5      0    59     white     0      1        100.0  33244.2  97.390
    ## 6      1    41     white     0      1         87.7   1452.1  44.597
    ## 7      0    45     black     0      1        100.0  41811.7 102.020
    ## 8      1    39     black     1      0         84.9  26964.4  79.785
    ## 9      0    37     white     0      1         98.3  22710.5 110.571
    ## 10     0    62     white     0      1         82.8   9470.8 104.752
    ## # ... with 990 more rows, and 4 more variables: height <dbl>, treat <int>,
    ## #   village_id <int>, ind_id <int>
    ## 
    ## 
    ## [[2]]
    ## [[2]]$analyses
…
